VO2-max
…
Data transformation

We will need to change the gender factor from a numeric vector to a factor variable.

dat$gender <- as.factor(dat$gender)
levels(dat$gender) <- c("Female", "Male")

print(dat)

## # A tibble: 100 x 6
##    subject_id   age weight heart_rate gender vo2_max
##         <dbl> <dbl>  <dbl>      <dbl> <fct>    <dbl>
##  1          1    27   70.5        150 Male      55.8
##  2          2    63   50.3        144 Female    35  
##  3          3    36   87.6        162 Male      42.9
##  4          4    26   89.8        129 Female    28.3
##  5          5    24  103.         143 Male      40.6
##  6          6    29   77.4        152 Female    33  
##  7          7    24   82.5        175 Male      43.5
##  8          8    27   75.9        160 Female    30.4
##  9          9    25   97.1        148 Male      40.2
## 10         10    22   78.4        125 Female    36.0
## #  with 90 more rows
…
